exercises/e5_adaptation/shift16_tb.vcd
$date
	Tue Nov  9 18:38:39 2021
$end
$version
	Icarus Verilog
$end
$timescale
	1s
$end
$scope module shift16_tb $end
$var wire 16 ! r [15:0] $end
$var reg 16 " a [15:0] $end
$var reg 1 # clk $end
$var reg 4 $ distance [3:0] $end
$var reg 16 % r_d1 [15:0] $end
$var reg 16 & r_d2 [15:0] $end
$scope module dut $end
$var wire 16 ' a [15:0] $end
$var wire 1 # clk $end
$var wire 4 ( distance [3:0] $end
$var wire 16 ) rdelay [15:0] $end
$var wire 16 * b [15:0] $end
$var reg 16 + r [15:0] $end
$scope module multi $end
$var wire 16 , a [15:0] $end
$var wire 16 - b [15:0] $end
$var wire 1 # clk $end
$var reg 16 . r [15:0] $end
$upscope $end
$upscope $end
$upscope $end
$enddefinitions $end
#0
$dumpvars
bx .
b1 -
b0 ,
bx +
b1 *
bx )
b0 (
b0 '
bx &
bx %
b0 $
0#
b0 "
bx !
$end
#10
b0 )
b0 .
b0 %
1#
#15
0#
#19
b10 *
b10 -
b1 $
b1 (
b1 "
b1 '
b1 ,
#20
b0 &
b10 %
b0 !
b0 +
b10 )
b10 .
1#
#25
0#
#29
b100 *
b100 -
b10 $
b10 (
#30
b100 )
b100 .
b10 !
b10 +
b10 &
b100 %
1#
#35
0#
#39
b1000 *
b1000 -
b11 $
b11 (
#40
b100 &
b1000 %
b100 !
b100 +
b1000 )
b1000 .
1#
#45
0#
#49
b10000 *
b10000 -
b100 $
b100 (
#50
b10000 )
b10000 .
b1000 !
b1000 +
b1000 &
b10000 %
1#
#55
0#
#59
b100000 *
b100000 -
b101 $
b101 (
#60
b10000 &
b100000 %
b10000 !
b10000 +
b100000 )
b100000 .
1#
#65
0#
#69
b1000000 *
b1000000 -
b110 $
b110 (
#70
b1000000 )
b1000000 .
b100000 !
b100000 +
b100000 &
b1000000 %
1#
#75
0#
#79
b10000000 *
b10000000 -
b111 $
b111 (
#80
b1000000 &
b10000000 %
b1000000 !
b1000000 +
b10000000 )
b10000000 .
1#
#85
0#
#89
b100000000 *
b100000000 -
b1000 $
b1000 (
#90
b100000000 )
b100000000 .
b10000000 !
b10000000 +
b10000000 &
b100000000 %
1#
#95
0#
#99
b1000000000 *
b1000000000 -
b1001 $
b1001 (
#100
b100000000 &
b1000000000 %
b100000000 !
b100000000 +
b1000000000 )
b1000000000 .
1#
#105
0#
#109
b10000000000 *
b10000000000 -
b1010 $
b1010 (
#110
b10000000000 )
b10000000000 .
b1000000000 !
b1000000000 +
b1000000000 &
b10000000000 %
1#
#115
0#
#119
b100000000000 *
b100000000000 -
b1011 $
b1011 (
#120
b10000000000 &
b100000000000 %
b10000000000 !
b10000000000 +
b100000000000 )
b100000000000 .
1#
#125
0#
#129
b1000000000000 *
b1000000000000 -
b1100 $
b1100 (
#130
b1000000000000 )
b1000000000000 .
b100000000000 !
b100000000000 +
b100000000000 &
b1000000000000 %
1#
#135
0#
#139
b10000000000000 *
b10000000000000 -
b1101 $
b1101 (
#140
b1000000000000 &
b10000000000000 %
b1000000000000 !
b1000000000000 +
b10000000000000 )
b10000000000000 .
1#
#145
0#
#149
b100000000000000 *
b100000000000000 -
b1110 $
b1110 (
#150
b100000000000000 )
b100000000000000 .
b10000000000000 !
b10000000000000 +
b10000000000000 &
b100000000000000 %
1#
#155
0#
#159
b1000000000000000 *
b1000000000000000 -
b1111 $
b1111 (
#160
b100000000000000 &
b1000000000000000 %
b100000000000000 !
b100000000000000 +
b1000000000000000 )
b1000000000000000 .
1#
#165
0#
#169
b1 *
b1 -
b0 $
b0 (
#170
b1 )
b1 .
b1000000000000000 !
b1000000000000000 +
b1000000000000000 &
b1 %
1#
#175
0#
#179
b10 *
b10 -
b1 $
b1 (
#180
b1 &
b10 %
b1 !
b1 +
b10 )
b10 .
1#
#185
0#
#189
b100 *
b100 -
b10 $
b10 (
#190
b100 )
b100 .
b10 !
b10 +
b10 &
b100 %
1#
#195
0#
#199
b1000 *
b1000 -
b11 $
b11 (
#200
b100 &
b1000 %
b100 !
b100 +
b1000 )
b1000 .
1#
#205
0#
#209
b10000 *
b10000 -
b100 $
b100 (
#210
b10000 )
b10000 .
b1000 !
b1000 +
b1000 &
b10000 %
1#
#215
0#
#219
b100000 *
b100000 -
b101 $
b101 (
#220
b10000 &
b100000 %
b10000 !
b10000 +
b100000 )
b100000 .
1#
#225
0#
#229
b1000000 *
b1000000 -
b110 $
b110 (
#230
b1000000 )
b1000000 .
b100000 !
b100000 +
b100000 &
b1000000 %
1#
#235
0#
#239
b10000000 *
b10000000 -
b111 $
b111 (
#240
b1000000 &
b10000000 %
b1000000 !
b1000000 +
b10000000 )
b10000000 .
1#
#245
0#
#249
b100000000 *
b100000000 -
b1000 $
b1000 (
#250
b100000000 )
b100000000 .
b10000000 !
b10000000 +
b10000000 &
b100000000 %
1#
#255
0#
#259
b1000000000 *
b1000000000 -
b1001 $
b1001 (
#260
b100000000 &
b1000000000 %
b100000000 !
b100000000 +
b1000000000 )
b1000000000 .
1#
#265
0#
#269
b10000000000 *
b10000000000 -
b1010 $
b1010 (
#270
b10000000000 )
b10000000000 .
b1000000000 !
b1000000000 +
b1000000000 &
b10000000000 %
1#
#275
0#
#279
b100000000000 *
b100000000000 -
b1011 $
b1011 (
#280
b10000000000 &
b100000000000 %
b10000000000 !
b10000000000 +
b100000000000 )
b100000000000 .
1#
#285
0#
#289
b1000000000000 *
b1000000000000 -
b1100 $
b1100 (
#290
b1000000000000 )
b1000000000000 .
b100000000000 !
b100000000000 +
b100000000000 &
b1000000000000 %
1#
#295
0#
#299
b10000000000000 *
b10000000000000 -
b1101 $
b1101 (
#300
b1000000000000 &
b10000000000000 %
b1000000000000 !
b1000000000000 +
b10000000000000 )
b10000000000000 .
1#
#305
0#
#309
b100000000000000 *
b100000000000000 -
b1110 $
b1110 (
#310
b100000000000000 )
b100000000000000 .
b10000000000000 !
b10000000000000 +
b10000000000000 &
b100000000000000 %
1#
#315
0#
#319
b1000000000000000 *
b1000000000000000 -
b1111 $
b1111 (
#320
b100000000000000 &
b1000000000000000 %
b100000000000000 !
b100000000000000 +
b1000000000000000 )
b1000000000000000 .
1#
#325
0#
#329
b1 *
b1 -
b0 $
b0 (
#330
b1 )
b1 .
b1000000000000000 !
b1000000000000000 +
b1000000000000000 &
b1 %
1#
#335
0#
#339
b10 *
b10 -
b1 $
b1 (
#340
b1 &
b10 %
b1 !
b1 +
b10 )
b10 .
1#
#345
0#
#349
b100 *
b100 -
b10 $
b10 (
#350
b100 )
b100 .
b10 !
b10 +
b10 &
b100 %
1#
#355
0#
#359
b1000 *
b1000 -
b11 $
b11 (
#360
b100 &
b1000 %
b100 !
b100 +
b1000 )
b1000 .
1#
#365
0#
#369
b10000 *
b10000 -
b100 $
b100 (
#370
b10000 )
b10000 .
b1000 !
b1000 +
b1000 &
b10000 %
1#
#375
0#
#379
b100000 *
b100000 -
b101 $
b101 (
#380
b10000 &
b100000 %
b10000 !
b10000 +
b100000 )
b100000 .
1#
#385
0#
#389
b1000000 *
b1000000 -
b110 $
b110 (
#390
b1000000 )
b1000000 .
b100000 !
b100000 +
b100000 &
b1000000 %
1#
#395
0#
#399
b10000000 *
b10000000 -
b111 $
b111 (
#400
b1000000 &
b10000000 %
b1000000 !
b1000000 +
b10000000 )
b10000000 .
1#
#405
0#
#409
b100000000 *
b100000000 -
b1000 $
b1000 (
#410
b100000000 )
b100000000 .
b10000000 !
b10000000 +
b10000000 &
b100000000 %
1#
#415
0#
#419
b1000000000 *
b1000000000 -
b1001 $
b1001 (
#420
b100000000 &
b1000000000 %
b100000000 !
b100000000 +
b1000000000 )
b1000000000 .
1#
#425
0#
#429
b10000000000 *
b10000000000 -
b1010 $
b1010 (
#430
b10000000000 )
b10000000000 .
b1000000000 !
b1000000000 +
b1000000000 &
b10000000000 %
1#
#435
0#
#439
b100000000000 *
b100000000000 -
b1011 $
b1011 (
#440
b10000000000 &
b100000000000 %
b10000000000 !
b10000000000 +
b100000000000 )
b100000000000 .
1#
#445
0#
#449
b1000000000000 *
b1000000000000 -
b1100 $
b1100 (
#450
b1000000000000 )
b1000000000000 .
b100000000000 !
b100000000000 +
b100000000000 &
b1000000000000 %
1#
#455
0#
#459
b10000000000000 *
b10000000000000 -
b1101 $
b1101 (
#460
b1000000000000 &
b10000000000000 %
b1000000000000 !
b1000000000000 +
b10000000000000 )
b10000000000000 .
1#
#465
0#
#469
b100000000000000 *
b100000000000000 -
b1110 $
b1110 (
#470
b100000000000000 )
b100000000000000 .
b10000000000000 !
b10000000000000 +
b10000000000000 &
b100000000000000 %
1#
#475
0#
#479
b1000000000000000 *
b1000000000000000 -
b1111 $
b1111 (
#480
b100000000000000 &
b1000000000000000 %
b100000000000000 !
b100000000000000 +
b1000000000000000 )
b1000000000000000 .
1#
#485
0#
#489
b1 *
b1 -
b0 $
b0 (
#490
b1 )
b1 .
b1000000000000000 !
b1000000000000000 +
b1000000000000000 &
b1 %
1#
#495
0#
#499
b10 *
b10 -
b1 $
b1 (
#500
b1 &
b10 %
b1 !
b1 +
b10 )
b10 .
1#
#505
0#
#509
b100 *
b100 -
b10 $
b10 (
#510
b100 )
b100 .
b10 !
b10 +
b10 &
b100 %
1#
